/* XPM */
static char * title_3_inactive_xpm[] = {
"2 26 3 1",
" 	c None",
".	c #242526",
"+	c #242526",
"..",
"++",
"++",
"++",
"++",
"++",
"++",
"++",
"++",
"++",
"++",
"++",
"++",
"++",
"++",
"++",
"++",
"++",
"++",
"++",
"++",
"++",
"++",
"++",
"++",
"++"};
