/* XPM */
static char * top_right_active_xpm[] = {
"2 26 4 1",
" 	c None",
".	c #242526",
"+	c #343434",
"@	c #242526",
". ",
"+.",
"@.",
"@.",
"@.",
"@.",
"@.",
"@.",
"@.",
"@.",
"@.",
"@.",
"@.",
"@.",
"@.",
"@.",
"@.",
"@.",
"@.",
"@.",
"@.",
"@.",
"@.",
"@.",
"@.",
"@."};
